TTT4260-ESDA/Design4/Data/Scope_sig_gen3.csv

#Digilent WaveForms Oscilloscope Acquisition
#Device Name: Discovery2
#Serial Number: SN:210321B3D979
#Date Time: 2023-04-20 15:52:30.063
#Sample rate: 1.20482e+06Hz
#Samples: 8192
#Trigger: Source: Wavegen C1 Condition: Rising
#Channel 1: Range: 500 mV/div Offset: 0 V Attenuation: 1 X Sample Mode: Average
#Channel 2: Range: 50 mV/div Offset: 5 mV Attenuation: 1 X Sample Mode: Average
#Ref 1: Range: 500 mV/div Offset: 0 V
#Wavegen Channel 1: Running
#Mode: Simple
#Type: Sine
#Frequency: 1.9 kHz
#Period: 526.315789 us
#Amplitude: 500 mV
#Offset: 0 V
#Symmetry: 50 %
#Phase: 0 °
#Power Supplies: ON
#Positive Supply: ON
#Voltage: 5 V
#Negative Supply: ON
#Voltage: -5 V

#Time (s),Channel 1 (V),Channel 2 (V),Ref 1 (V)
-0.004377273360995851,1.311965927363232,0.1092204314219194,-0.474757763545493
-0.00437644336099585,1.305208273464181,0.1088841235003613,-0.4784744731899694
-0.004375613360995851,1.295747558005516,0.1078751997356886,-0.4801638866647311
-0.004374783360995851,1.287638373326654,0.1088841235003619,-0.4818533001394949
-0.004373953360995851,1.282570132902371,0.1092204314219194,-0.4848942443940644
-0.004373123360995851,1.274460948223509,0.1088841235003618,-0.4859078924789233
-0.004372293360995851,1.262972936595125,0.1092204314219195,-0.4848942443940658
-0.00437146336099585,1.25993199234055,0.107875199735688,-0.4875973059536872
-0.004370633360995851,1.253174338441503,0.1065299680494576,-0.4909761329032105
-0.004369803360995851,1.241686326813119,0.1072025838925731,-0.4919897809880679
-0.004368973360995851,1.231887728659501,0.1055210442847852,-0.4946928425476866
-0.004368143360995851,1.222427013200831,0.105857352206342,-0.4960443733274971
-0.004367313360995851,1.21871030355635,0.1058573522063422,-0.4957064906325453
-0.00436648336099585,1.208911705402723,0.1051847363632265,-0.4960443733274982
-0.00436565336099585,1.198099459164236,0.1048484284416683,-0.4970580214123577
-0.004364823360995851,1.184922034061102,0.1041758125985535,-0.4997610829719751
-0.004363993360995851,1.173771905127675,0.1028305809123232,-0.5004368483618797
-0.004363163360995851,1.170055195483194,0.1021579650692074,-0.5014504964467371
-0.004362333360995851,1.156539887685093,0.1014853492260916,-0.5034777926164524
-0.00436150336099585,1.151133764565846,0.1001401175398599,-0.5028020272265473
-0.00436067336099585,1.134577512513179,0.09845857793207212,-0.5024641445315957
-0.004359843360995851,1.12883350669899,0.09879488585362972,-0.5041535580063574
-0.004359013360995851,1.117683377765568,0.09812227001051485,-0.5051672060912139
-0.004358183360995851,1.104168069967465,0.09644073040272634,-0.5058429714811195
-0.004357353360995851,1.094369471813836,0.09543180663805237,-0.5068566195659773
-0.004356523360995851,1.083557225575357,0.09442288287337916,-0.5068566195659773
-0.00435569336099585,1.072744979336872,0.09240503534403305,-0.5082081503457883
-0.004354863360995851,1.060581202318588,0.09307765118714822,-0.5105733292104545
-0.004354033360995851,1.051458369554871,0.09072349573624405,-0.5105733292104545
-0.004353203360995851,1.034564234807255,0.0897145719715713,-0.5122627426852162
-0.004352373360995851,1.019359513534385,0.08836934028533991,-0.5126006253801695
-0.004351543360995851,1.009223032685811,0.0873604165206667,-0.5142900388549319
-0.00435071336099585,0.9987486691422798,0.08534256899131921,-0.5136142734650275
-0.00434988336099585,0.9896258363785604,0.08298841354041522,-0.5149658042448377
-0.004349053360995851,0.9825302997845647,0.08197948977574293,-0.5159794523296942
-0.004348223360995851,0.9568512149681877,0.08029795016795503,-0.5163173350246466
-0.004347393360995851,0.9494177956792248,0.07962533432483909,-0.5163173350246467
-0.004346563360995851,0.9345509571013122,0.07794379471705012,-0.5149658042448368
-0.00434573336099585,0.9136022300142507,0.07626225510926052,-0.5166552177195984
-0.00434490336099585,0.8967080952666274,0.07424440757991425,-0.514965804244838
-0.004344073360995851,0.881841256688725,0.07256286797212635,-0.5173309831095042
-0.004343243360995851,0.8730563066199685,0.07088132836433919,-0.5183446311943607
-0.004342413360995851,0.855148523787487,0.06919978875654977,-0.518682513889314
-0.004341583360995851,0.8517696968379541,0.06718194122720259,-0.5173309831095042
-0.004340753360995851,0.8379165063448963,0.06482778577629798,-0.5173309831095049
-0.00433992336099585,0.8247390812417468,0.06381886201162493,-0.5186825138893142
-0.004339093360995851,0.8058176503244164,0.06314624616850975,-0.5190203965842666
-0.004338263360995851,0.7821658616777427,0.05978316695293239,-0.5169931004145517
-0.004337433360995851,0.7679747884897449,0.0577653194235869,-0.5163173350246471
-0.004336603360995851,0.757162542251259,0.05642008773735505,-0.5159794523296942
-0.004335773360995851,0.7355380497743002,0.05272070060021995,-0.5136142734650269
-0.00433494336099585,0.7179681496367659,0.05103916099243051,-0.5142900388549317
-0.004334113360995851,0.7068180207033443,0.04935762138464336,-0.5139521561599795
-0.004333283360995851,0.6895860032607626,0.04801238969841166,-0.512262742685217
-0.004332453360995851,0.6639069184443855,0.04565823424750858,-0.512262742685217
-0.004331623360995851,0.6591765607150413,0.04263146295348926,-0.5126006253801694
-0.004330793360995851,0.6395793644077952,0.04094992334569921,-0.510235446515502
-0.00432996336099585,0.6169412238459707,0.03960469165946705,-0.5092217984306427
-0.00432913336099585,0.5990334410134761,0.03691422828700363,-0.5051672060912155
-0.004328303360995851,0.575719535061776,0.03388745699298677,-0.5058429714811198
-0.004327473360995851,0.5608526964838804,0.03186960946364219,-0.5051672060912155
-0.004326643360995851,0.550716215635297,0.02985176193429485,-0.5038156753114056
-0.004325813360995851,0.5338220808876682,0.028506530248063,-0.5044914407013099
-0.004324983360995851,0.5176037115299398,0.02514345103248488,-0.502802027226547
-0.00432415336099585,0.4969928671378357,0.02346191142469543,-0.5017883791416901
-0.004323323360995851,0.4706380169315541,0.02009883220911961,-0.5017883791416901
-0.004322493360995851,0.4581363572183123,0.01841729260133093,-0.5000989656669276
-0.004321663360995851,0.4361739820464109,0.01673575299354302,-0.4987474348871182
-0.004320833360995851,0.4219829088583966,0.0133726737779649,-0.4963822560224502
-0.004320003360995851,0.3966417067369605,0.009673286640829809,-0.4970580214123552
-0.00431917336099585,0.3716383873104712,0.007991747033040368,-0.4963822560224496
-0.004318343360995851,0.3594746102921874,0.006310207425252455,-0.4950307252426403
-0.004317513360995851,0.3462971851890406,0.003956051974348306,-0.4933413117678779
-0.004316683360995851,0.3179150388130451,0.001938204445002811,-0.4923276636830209
-0.004315853360995851,0.3020345521502726,-0.001424874770573932,-0.4913140155981635
-0.004315023360995851,0.2787206461985441,-0.004115338143037345,-0.4886109540385432
-0.00431419336099585,0.2635159249256724,-0.005796877750826789,-0.4872594232587331
-0.00431336336099585,0.2415535497537471,-0.007478417358618371,-0.4869215405637795
-0.004312533360995851,0.2151986995474775,-0.01151411241730753,-0.4855700097839708
-0.004311703360995851,0.1993182128847252,-0.01319565202509467,-0.4838805963092099
-0.004310873360995851,0.1814104300522374,-0.01756765500534478,-0.4825290655293991
-0.004310043360995851,0.1540419317610782,-0.01857657877001997,-0.4801638866647311
-0.004309213360995851,0.1334310873689703,-0.02126704214248277,-0.477122942410158
-0.00430838336099585,0.1192400141809654,-0.02328488967182965,-0.4754335289353954
-0.004307553360995851,0.1036974102131583,-0.02631166096584789,-0.4734062327656814
-0.004306723360995851,0.08038350426142782,-0.02933843225986888,-0.4703652885111083
-0.004305893360995851,0.06011054256429731,-0.03236520355388575,-0.4686758750363474
-0.004305063360995851,0.04220275973180654,-0.0340467431616758,-0.4666485788666318
-0.004304233360995851,0.01517214413560795,-0.03673720653413769,-0.4652970480868219
-0.00430340336099585,-0.009155409900974309,-0.03942766990660095,-0.4615803384423438
-0.004302573360995851,-0.01692671188487787,-0.04245444120061919,-0.4598909249675822
-0.004301743360995851,-0.0466603890406963,-0.04447228872996561,-0.4568499807130098
-0.004300913360995851,-0.06220299300850343,-0.04682644418086868,-0.4544848018483435
-0.004300083360995851,-0.08044865853593625,-0.04884429171021525,-0.4500923268139622
-0.004299253360995851,-0.100383737538141,-0.05187106300423579,-0.4480650306442452
-0.00429842336099585,-0.1152505761160597,-0.05388891053358357,-0.445024086389672
-0.00429759336099585,-0.1361993032031247,-0.05691568182760396,-0.4429967902199552
-0.004296763360995851,-0.1588374437649204,-0.05926983727850597,-0.4399558459653857
-0.004295933360995851,-0.1764073439024335,-0.06128768480785055,-0.4382664324906249
-0.004295103360995851,-0.1949908921248276,-0.06397814818031304,-0.436914901710814
-0.004294273360995851,-0.215263853821985,-0.06633230363121842,-0.433198192066336
-0.00429344336099585,-0.2362125809090483,-0.06902276700368151,-0.433198192066333
-0.00429261336099585,-0.2568234253011437,-0.07171323037614372,-0.4264405381672846
-0.004291783360995851,-0.2642568445900949,-0.07507630959171954,-0.4223859458278566
-0.004290953360995851,-0.2804752139478191,-0.07642154127795139,-0.4200207669631883
-0.004290123360995851,-0.2916253428812409,-0.07843938880729598,-0.4179934707934753
-0.004289293360995851,-0.3142634834430623,-0.08079354425820104,-0.4139388784540445
-0.004288463360995851,-0.328792439326019,-0.08281139178754746,-0.4125873476742346
-0.00428763336099585,-0.3423077471241248,-0.08382031555222234,-0.4115736995893753
-0.004286803360995851,-0.3564988203121225,-0.08751970268935574,-0.4075191072499474
-0.004285973360995851,-0.367311066550602,-0.08987385814025989,-0.4048160456903275
-0.004285143360995851,-0.3848809666881231,-0.09222801359116296,-0.4024508668256612
-0.004284313360995851,-0.3990720398761289,-0.09323693735583678,-0.3990720398761369
-0.004283483360995851,-0.4139388784540445,-0.09525478488518366,-0.394679564841753
-0.00428265336099585,-0.4230617112177678,-0.09794524825764662,-0.3926522686720366
-0.00428182336099585,-0.4365770190158731,-0.1002994037085512,-0.3892734417225112
-0.004280993360995851,-0.4500923268139602,-0.1019809433163384,-0.386908262857846
-0.004280163360995851,-0.4548226845432927,-0.1053440225319142,-0.3835294359083227
-0.004279333360995851,-0.4707031712060544,-0.1066892542181461,-0.3794748435688932
-0.004278503360995851,-0.4791502385798737,-0.1087071017474931,-0.377785430094129
-0.00427767336099585,-0.4896246021234032,-0.1103886413552822,-0.3720414242799364
-0.00427684336099585,-0.495368607937597,-0.111397565119956,-0.3713656588900294
-0.004276013360995851,-0.5044914407013099,-0.1137517205708591,-0.3662974184657445
-0.004275183360995851,-0.5119248599902577,-0.1161058760217611,-0.3622428261263184
-0.004274353360995851,-0.5264538158732146,-0.117114799786436,-0.3598776472616484
-0.004273523360995851,-0.5294947601277935,-0.1187963393942252,-0.3561609376171701
-0.004272693360995851,-0.5382797101965616,-0.1214868027666873,-0.3527821106676437
-0.00427186336099585,-0.5460510121804698,-0.1221594186098033,-0.3494032837181181
-0.004271033360995851,-0.5561874930290397,-0.1238409582175912,-0.3443350432938332
-0.004270203360995851,-0.5626072642331368,-0.1255224978253799,-0.3409562163443084
-0.004269373360995851,-0.5686891527422787,-0.1278766532762829,-0.3348743278351665
-0.004268543360995851,-0.5734195104716162,-0.1292218849625149,-0.3304818528007814
-0.004267713360995851,-0.5801771643706659,-0.1302308087271881,-0.3271030258512566
-0.00426688336099585,-0.5876105836596224,-0.1319123483349771,-0.3237241989017296
-0.004266053360995851,-0.5916651759990484,-0.132584964178092,-0.3189938411723992
-0.004265223360995851,-0.5994364779829574,-0.134266503785881,-0.3156150142228722
-0.004264393360995851,-0.6004501260678143,-0.1356117354721113,-0.3112225391884919
-0.004263563360995851,-0.6065320145769567,-0.1369569671583422,-0.3064921814591574
-0.004262733360995851,-0.6105866069163893,-0.1379658909230161,-0.3037891198995353
-0.00426190336099585,-0.6153169646457267,-0.1389748146876896,-0.298382996780294
-0.00426107336099585,-0.6210609704599211,-0.1396474305308057,-0.2946662871358147
-0.004260243360995851,-0.626467093579156,-0.140656354295478,-0.2906116947963885
-0.004259413360995851,-0.6295080378337256,-0.1413289701385928,-0.2872328678468667
-0.004258583360995851,-0.6335626301731562,-0.1433468176679389,-0.2835161582023881
-0.004257753360995851,-0.6379551052075404,-0.1440194335110553,-0.2770963869982892
-0.004256923360995851,-0.642347580241925,-0.1446920493541712,-0.273041794658858
-0.00425609336099585,-0.6474158206662118,-0.1457009731188446,-0.2700008504042859
-0.004255263360995851,-0.6518082957005922,-0.1470462048050749,-0.2672977888446673
-0.004254433360995851,-0.654511357260212,-0.1477188206481904,-0.2625674311153325
-0.004253603360995851,-0.6575523015147831,-0.1473825127266328,-0.2591886041658092
-0.004252773360995851,-0.6612690111592616,-0.1480551285697481,-0.2537824810465679
-0.004251943360995851,-0.6632963073289766,-0.1490640523344213,-0.2500657714020906
-0.00425111336099585,-0.6670130169734558,-0.1494003602559792,-0.2456732963677065
-0.004250283360995851,-0.6714054920078342,-0.1497366681775366,-0.2416187040282804
-0.004249453360995851,-0.6724191400926935,-0.1504092840206523,-0.2379019943838013
-0.004248623360995851,-0.6761358497371692,-0.1510818998637674,-0.2311443404847547
-0.004247793360995851,-0.6795146766866942,-0.1510818998637677,-0.226413982755419
-0.004246963360995851,-0.6812040901614581,-0.152090823628441,-0.2233730385008445
-0.00424613336099585,-0.6842450344160311,-0.1517545157068838,-0.2186426807715086
-0.00424530336099585,-0.6855965651958428,-0.1530997473931132,-0.2159396192118862
-0.004244473360995851,-0.6882996267554602,-0.152090823628441,-0.2118850268724601
-0.004243643360995851,-0.6916784537049819,-0.1524271315499984,-0.2041137248885601
-0.004242813360995851,-0.6926921017898421,-0.1520908236284411,-0.2017485460238868
-0.004241983360995851,-0.6960709287393674,-0.1510818998637677,-0.1966803055995984
-0.004241153360995851,-0.6980982249090834,-0.1507455919422103,-0.1916120651753078
-0.00424032336099585,-0.7004634037737509,-0.1514182077853253,-0.1841786458863554
-0.004239493360995851,-0.703504348028322,-0.1510818998637677,-0.1814755843267367
-0.004238663360995851,-0.7062074095879418,-0.1524271315499987,-0.1780967573772119
-0.004237833360995851,-0.7078968230627034,-0.1524271315499987,-0.1726906342579747
-0.004237003360995851,-0.7082347057576567,-0.1517545157068832,-0.1655950976639701
-0.004236173360995851,-0.7095862365374667,-0.1514182077853255,-0.1618783880194928
-0.00423534336099585,-0.7112756500122303,-0.1500729760990941,-0.1578237956800596
-0.004234513360995851,-0.7139787115718489,-0.1490640523344213,-0.1503903763911084
-0.004233683360995851,-0.7166817731314687,-0.1480551285697481,-0.1476873148314885
-0.004232853360995851,-0.719046951996135,-0.147382512726633,-0.1422811917122513
-0.004232023360995851,-0.7197227173860408,-0.1470462048050751,-0.1351856551182499
-0.004231193360995851,-0.7203984827759461,-0.1463735889619595,-0.1324825935586268
-0.00423036336099585,-0.7234394270305196,-0.1450283572757287,-0.1291037666090984
-0.00422953336099585,-0.7258046058951874,-0.145364665197285,-0.1213324646251924
-0.004228703360995851,-0.7274940193699482,-0.1440194335110553,-0.118629403065575
-0.004227873360995851,-0.7298591982346134,-0.143010509746383,-0.1145748107261489
-0.004227043360995851,-0.7308728463194726,-0.1436831255894973,-0.110182335691765
-0.004226213360995851,-0.7318864944043304,-0.1416652780601512,-0.1068035087422382
-0.00422538336099585,-0.7329001424891886,-0.1396474305308046,-0.09768067597851975
-0.00422455336099585,-0.7342516732689983,-0.1393111226092467,-0.0946397317239468
-0.004223723360995851,-0.7352653213538553,-0.1386385067661315,-0.09024725668956653
-0.004222893360995851,-0.735941086743761,-0.1362843513152271,-0.0858547816551818
-0.004222063360995851,-0.7376305002185218,-0.1356117354721122,-0.080448658535947
-0.004221233360995851,-0.7386441483033801,-0.1339301958643232,-0.0757183008066098
-0.004220403360995851,-0.7410093271680475,-0.1332575800212078,-0.07166370846718
-0.00421957336099585,-0.7413472098630007,-0.132248656256534,-0.06625758534793844
-0.004218743360995851,-0.7430366233377623,-0.1309034245703036,-0.0622029930085105
-0.004217913360995851,-0.7440502714226198,-0.127876653276284,-0.05814840066908071
-0.004217083360995851,-0.745401802202429,-0.1272040374331689,-0.05274227754984345
-0.004216253360995851,-0.747766981067096,-0.1255224978253806,-0.04801191982050838
-0.004215423360995851,-0.7481048637620495,-0.1235046502960334,-0.04361944478612396
-0.00421459336099585,-0.7477669810670978,-0.1228320344529174,-0.03787543897192992
-0.00421376336099585,-0.7491185118469086,-0.1214868027666849,-0.03382084663249615
-0.004212933360995851,-0.7508079253216695,-0.1191326473157829,-0.02740107542840482
-0.004212103360995851,-0.7524973387964311,-0.117451107707995,-0.02199495230916756
-0.004211273360995851,-0.7521594561014795,-0.1154332601786487,-0.01625094649497551
-0.004210443360995851,-0.7545246349661467,-0.1140880284924169,-0.01152058876563815
-0.00420961336099585,-0.7548625176610991,-0.1117338730415121,-0.007465996426206672
-0.00420878336099585,-0.7545246349661475,-0.1103886413552802,-0.003749286781727831
-0.004207953360995851,-0.7562140484409092,-0.1070255621397044,0.003346249812271071
-0.004207123360995851,-0.7568898138308134,-0.104335098767245,0.009766021016362396
-0.004206293360995851,-0.7572276965257665,-0.102317251237897,0.01348273066084385
-0.004205463360995851,-0.7589171100005291,-0.1006357116301074,0.02091614994980015
-0.004204633360995851,-0.7599307580853865,-0.09962678786543422,0.02463285959427745
-0.00420380336099585,-0.7602686407803397,-0.09660001657141368,0.03071474810342383
-0.004202973360995851,-0.7619580542551013,-0.0945821690420682,0.03443145774789944
-0.004202143360995851,-0.7622959369500538,-0.09256432151272179,0.04051334625704413
-0.004201313360995851,-0.7636474677298631,-0.09054647398337629,0.04423005590151974
-0.004200483360995851,-0.7633095850349113,-0.08953755021870216,0.04929829632580866
-0.004199653360995851,-0.7643232331197688,-0.08583816308156708,0.05335288866523845
-0.00419882336099585,-0.7649989985096737,-0.08348400763066215,0.05808324639457597
-0.00419799336099585,-0.7649989985096752,-0.0818024680228715,0.06416513490371972
-0.004197163360995851,-0.7666884119844362,-0.07877569672885462,0.06619243107343277
-0.004196333360995851,-0.7653368812046268,-0.07642154127795155,0.073625850362384
-0.004195503360995851,-0.7670262946793879,-0.0740673858270474,0.07666679461695834
-0.004194673360995851,-0.767364177374341,-0.07137692245458443,0.08207291773619944
-0.00419384336099585,-0.7693914735440561,-0.07003169076835243,0.08815480624534688
-0.00419301336099585,-0.7697293562390082,-0.06767753531744813,0.09423669475448972
-0.004192183360995851,-0.7690535908491035,-0.06498707194498747,0.09626399092420369
-0.004191353360995851,-0.7710808870188165,-0.06128768480785574,0.1016701140434385
-0.004190523360995851,-0.7720945351036754,-0.05960614520006446,0.1057247063828714
-0.004189693360995851,-0.7724324177986284,-0.05725198974915956,0.109779298722303
-0.004188863360995851,-0.7717566524087235,-0.05557045014136965,0.1128202429768778
-0.00418803336099585,-0.7720945351036768,-0.05287998676890762,0.118226366096117
-0.004187203360995851,-0.7741218312733907,-0.04985321547488937,0.1226188411304973
-0.004186373360995851,-0.7734460658834857,-0.04615382833775428,0.128700729639642
-0.004185543360995851,-0.7727703004935811,-0.04245444120062087,0.13275532197907
-0.004184713360995851,-0.7754733620532006,-0.04144551743594599,0.1381614450983115
-0.004183883360995851,-0.7751354793582482,-0.03808243822036863,0.1408645066579314
-0.00418305336099585,-0.7758112447481536,-0.036064590691021,0.1469463951670788
-0.004182223360995851,-0.7768248928330101,-0.03337412731856156,0.153028283676218
-0.004181393360995851,-0.7768248928330106,-0.03101997186765619,0.1553934625408881
