TTT4260-ESDA/Design4/Data/Scope_sig_gen1.csv

#Digilent WaveForms Oscilloscope Acquisition
#Device Name: Discovery2
#Serial Number: SN:210321B3D979
#Date Time: 2023-04-20 12:38:33.595
#Sample rate: 1.20482e+06Hz
#Samples: 8192
#Trigger: Source: Channel 1 Type: Edge Condition: Rising Level: 0 V Hyst.: Auto HoldOff: 0 s
#Channel 1: Range: 500 mV/div Offset: 0 V Attenuation: 1 X Sample Mode: Average
#Channel 2: Range: 500 mV/div Offset: 0 V Attenuation: 1 X Sample Mode: Average
#Wavegen Channel 1: Running
#Mode: Simple
#Type: Sine
#Frequency: 1.9 kHz
#Period: 526.315789 us
#Amplitude: 1 V
#Offset: 0 V
#Symmetry: 50 %
#Phase: 0 °
#Power Supplies: ON
#Positive Supply: ON
#Voltage: 5 V
#Negative Supply: ON
#Voltage: -5 V

#Time (s),Channel 1 (V),Channel 2 (V)
-0.004377244740306195,-0.902517255355334,0.05122556972478463
-0.004376414740306195,-0.9072476130846687,0.05088926180322691
-0.004375584740306196,-0.9109643227291444,0.05257080141101482
-0.004374754740306195,-0.9146810323736217,0.05290710933257316
-0.004373924740306195,-0.9167083285433383,0.05357972517568879
-0.004373094740306196,-0.9211008035777185,0.05492495686191912
-0.004372264740306196,-0.9238038651373391,0.05559757270503489
-0.004371434740306195,-0.9278584574767702,0.05357972517568879
-0.004370604740306196,-0.9305615190363876,0.05492495686191851
-0.004369774740306196,-0.9329266979010563,0.05627018854815005
-0.004368944740306195,-0.9376570556303921,0.05627018854815066
-0.004368114740306196,-0.9413737652748662,0.0566064964697081
-0.004367284740306196,-0.9434010614445835,0.05694280439126599
-0.004366454740306195,-0.9464420056991567,0.05727911231282387
-0.004365624740306195,-0.9501587153436357,0.05761542023438222
-0.004364794740306196,-0.9538754249881096,0.05896065192061194
-0.004363964740306195,-0.9569163692426836,0.05896065192061255
-0.004363134740306195,-0.9589436654123985,0.05996957568528576
-0.004362304740306196,-0.9616467269720171,0.05963326776372818
-0.004361474740306195,-0.9636740231417333,0.0603058836068435
-0.004360644740306195,-0.9667149673963057,0.06064219152840122
-0.004359814740306196,-0.9697559116508766,0.06030588360684365
-0.004358984740306195,-0.9697559116508779,0.0603058836068435
-0.004358154740306195,-0.9724589732104978,0.05963326776372803
-0.004357324740306196,-0.9748241520751642,0.06064219152840077
-0.004356494740306196,-0.9768514482448792,0.06232373113618915
-0.004355664740306195,-0.97820297902469,0.06131480737151671
-0.004354834740306196,-0.9788787444145943,0.06434157866553357
-0.004354004740306196,-0.9815818059742136,0.06467788658709391
-0.004353174740306195,-0.9819196886691673,0.06467788658709406
-0.004352344740306196,-0.9825954540590717,0.06535050243020891
-0.004351514740306196,-0.981243923279263,0.0660231182733247
-0.004350684740306195,-0.9849606329237397,0.06602311827332501
-0.004349854740306195,-0.9873258117884074,0.06568681035176772
-0.004349024740306196,-0.9880015771783117,0.06669573411644002
-0.004348194740306195,-0.9890152252631694,0.06635942619488273
-0.004347364740306195,-0.9893531079581219,0.06669573411644047
-0.004346534740306196,-0.9880015771783127,0.06635942619488289
-0.004345704740306195,-0.9913804041278369,0.06736834995955594
-0.004344874740306195,-0.9913804041278369,0.06736834995955594
-0.004344044740306196,-0.9934077002975509,0.06669573411644078
-0.004343214740306195,-0.9917182868227901,0.06736834995955564
-0.004342384740306195,-0.9934077002975518,0.06871358164578689
-0.004341554740306196,-0.9917182868227901,0.06904988956734447
-0.004340724740306195,-0.9920561695177417,0.06736834995955671
-0.004339894740306195,-0.9920561695177418,0.06938619748890236
-0.004339064740306196,-0.9917182868227894,0.06972250541045993
-0.004338234740306196,-0.9910425214328847,0.06938619748890251
-0.004337404740306195,-0.9907046387379319,0.07106773709669104
-0.004336574740306196,-0.9917182868227884,0.07174035293980589
-0.004335744740306196,-0.9900288733480277,0.07039512125357618
-0.004334914740306195,-0.9883394598732645,0.0717403529398065
-0.004334084740306196,-0.9880015771783124,0.07106773709669165
-0.004333254740306196,-0.986987929093455,0.07241296878292136
-0.004332424740306195,-0.9856363983136447,0.07241296878292197
-0.004331594740306195,-0.9849606329237397,0.07308558462603745
-0.004330764740306196,-0.9836091021439304,0.07308558462603745
-0.004329934740306195,-0.9836091021439297,0.07207666086136424
-0.004329104740306195,-0.9809060405843099,0.07207666086136424
-0.004328274740306196,-0.9795545098045007,0.073085584626037
-0.004327444740306195,-0.9785408617196425,0.07375820046915292
-0.004326614740306195,-0.9761756828549751,0.07342189254759518
-0.004325784740306196,-0.9744862693802135,0.07308558462603761
-0.004324954740306195,-0.9727968559054511,0.07342189254759503
-0.004324124740306195,-0.9704316770407829,0.07342189254759518
-0.004323294740306196,-0.9684043808710689,0.07510343215538309
-0.004322464740306196,-0.9660392020064018,0.07543974007694144
-0.004321634740306195,-0.9643497885316382,0.07476712423382613
-0.004320804740306196,-0.961984609666973,0.07611235592005584
-0.004319974740306196,-0.9599573134972569,0.07611235592005706
-0.004319144740306195,-0.9572542519376361,0.07712127968473027
-0.004318314740306196,-0.9542133076830666,0.07577604799850055
-0.004317484740306196,-0.9511723634284928,0.07577604799849932
-0.004316654740306195,-0.9477935364789666,0.07476712423382613
-0.004315824740306195,-0.9447525922243932,0.07644866384161435
-0.004314994740306196,-0.942387413359728,0.07543974007694206
-0.004314164740306195,-0.9393464691051546,0.07678497176317253
-0.004313334740306195,-0.9356297594606773,0.07577604799849932
-0.004312504740306196,-0.934278228680868,0.07712127968472966
-0.004311674740306195,-0.9288721055616276,0.07880281929251895
-0.004310844740306195,-0.9258311613070553,0.07712127968473027
-0.004310014740306196,-0.922452334357532,0.07779389552784544
-0.004309184740306195,-0.9197492727979119,0.07644866384161542
-0.004308354740306195,-0.9150189150685758,0.07678497176317253
-0.004307524740306196,-0.9116400881190526,0.07577604799849978
-0.004306694740306195,-0.90859914386448,0.07712127968472966
-0.004305864740306195,-0.9055581996099064,0.07644866384161481
-0.004305034740306196,-0.899138428405812,0.07611235592005722
-0.004304204740306196,-0.8940701879815243,0.07611235592005706
-0.004303374740306195,-0.8910292437269496,0.07712127968473027
-0.004302544740306196,-0.8869746513875235,0.07543974007694312
-0.004301714740306196,-0.8805548801834255,0.07813020344940226
-0.004300884740306195,-0.8771760532338978,0.07745758760628801
-0.004300054740306196,-0.8727835781995196,0.07712127968473058
-0.004299224740306196,-0.8687289858600876,0.07678497176317269
-0.004298394740306195,-0.863998628130751,0.07712127968473027
-0.004297564740306195,-0.8575788569266538,0.07913912721407669
-0.004296734740306196,-0.8525106165023689,0.07779389552784635
-0.004295904740306195,-0.8477802587730319,0.07779389552784574
-0.004295074740306195,-0.844401431823507,0.07745758760628801
-0.004294244740306196,-0.8376437779244605,0.07779389552784559
-0.004293414740306195,-0.8325755375001702,0.07813020344940348
-0.004292584740306195,-0.8271694143809305,0.07779389552784574
-0.004291754740306196,-0.821425408566741,0.0784665113709609
-0.004290924740306195,-0.8177086989222626,0.07712127968473088
-0.004290094740306195,-0.8106131623282589,0.07813020344940348
-0.004289264740306196,-0.8055449219039739,0.07678497176317314
-0.004288434740306196,-0.7991251506998773,0.07745758760628771
-0.004287604740306195,-0.7937190275806347,0.07745758760628801
-0.004286774740306196,-0.7869613736815911,0.07611235592005829
-0.004285944740306196,-0.7805416024774908,0.07813020344940257
-0.004285114740306195,-0.7744597139683432,0.07678497176317253
-0.004284284740306196,-0.7690535908491084,0.07779389552784483
-0.004283454740306196,-0.7612822888652,0.07611235592005783
-0.004282624740306195,-0.7555382830510042,0.07678497176317253
-0.004281794740306195,-0.7501321599317606,0.07712127968472997
-0.004280964740306196,-0.7416850925579563,0.07644866384161511
-0.004280134740306195,-0.7386441483033801,0.07712127968473027
-0.004279304740306195,-0.730872846319473,0.07611235592005706
-0.004278474740306196,-0.7234394270305218,0.07510343215538431
-0.004277644740306195,-0.7153302423516588,0.07510343215538386
-0.004276814740306195,-0.7102620019273715,0.0754397400769416
-0.004275984740306196,-0.702490699943468,0.07510343215538401
-0.004275154740306195,-0.6964088114343225,0.07577604799849902
-0.004274324740306195,-0.6893132748403177,0.07510343215538386
-0.004273494740306196,-0.6812040901614618,0.07409450839071111
-0.004272664740306195,-0.6751222016523162,0.07611235592005615
-0.004271834740306195,-0.6666751342785013,0.07409450839071065
-0.004271004740306196,-0.6595795976845025,0.07443081631226824
-0.004270174740306196,-0.6518082957005957,0.07342189254759564
-0.004269344740306195,-0.6457264071914475,0.07375820046915292
-0.004268514740306196,-0.6359278090378344,0.07207666086136577
-0.004267684740306196,-0.6298459205286836,0.07342189254759457
-0.004266854740306195,-0.6217367358498213,0.07308558462603745
-0.004266024740306196,-0.6146411992558255,0.07274927670448002
-0.004265194740306196,-0.6061941318820109,0.07174035293980696
-0.004264364740306195,-0.5994364779829574,0.07308558462603745
-0.004263534740306195,-0.5906515279141928,0.07140404501824876
-0.004262704740306196,-0.5825423432353369,0.07207666086136394
-0.004261874740306195,-0.5751089239463787,0.07140404501824876
-0.004261044740306195,-0.5659860911826616,0.07207666086136424
-0.004260214740306196,-0.5582147891987581,0.07005881333201874
-0.004259384740306195,-0.550105604519895,0.07140404501824876
-0.004258554740306195,-0.5416585371460829,0.07039512125357557
-0.004257724740306196,-0.5332114697722747,0.07106773709669073
-0.004256894740306195,-0.5267916985681765,0.07005881333201829
-0.004256064740306195,-0.5183446311943616,0.07005881333201783
-0.004255234740306196,-0.5098975638205535,0.0687135816457875
-0.004254404740306196,-0.5011126137517891,0.07005881333201722
-0.004253574740306195,-0.491314015598163,0.06972250541046009
-0.004252744740306196,-0.4825290655294064,0.06904988956734523
-0.004251914740306196,-0.4730683500707332,0.06972250541045978
-0.004251084740306195,-0.4649591653918694,0.0670320420379982
-0.004250254740306196,-0.4561742153231128,0.06837727372422793
-0.004249424740306196,-0.4487407960341536,0.06602311827332608
-0.004248594740306195,-0.4389421978805282,0.06602311827332501
-0.004247764740306195,-0.431170895896617,0.06669573411644017
-0.004246934740306196,-0.4220480631329083,0.06602311827332531
-0.004246104740306195,-0.4108979341994722,0.06568681035176727
-0.004245274740306195,-0.4048160456903275,0.06535050243020953
-0.004244444740306196,-0.39501744753671,0.06501419450865195
-0.004243614740306195,-0.385556732078036,0.06434157866553632
-0.004242784740306195,-0.377785430094129,0.06366896282242085
-0.004241954740306196,-0.3700141281102254,0.06366896282242085
-0.004241124740306195,-0.358863999176795,0.06232373113619052
-0.004240294740306195,-0.3504169318029779,0.06299634697930538
-0.004239464740306196,-0.3385910374796464,0.06165111529307504
-0.004238634740306195,-0.3298060874108805,0.06299634697930477
-0.004237804740306195,-0.3213590200370644,0.06097849944995896
-0.004236974740306196,-0.3105467737985948,0.06266003905774611
-0.004236144740306196,-0.3014239410348721,0.06131480737151732
-0.004235314740306195,-0.2943284044408658,0.05963326776372803
-0.004234484740306196,-0.285205571677157,0.05996957568528545
-0.004233654740306196,-0.274055442743722,0.05828803607749784
-0.004232824740306195,-0.2639189618951424,0.05862434399905482
-0.004231994740306195,-0.2561476599112304,0.05896065192061301
-0.004231164740306196,-0.2453354136727608,0.0599695756852853
-0.004230334740306195,-0.2348610501292289,0.05761542023438161
-0.004229504740306195,-0.225062451975607,0.05694280439126614
-0.004228674740306196,-0.2169532672967511,0.05694280439126614
-0.004227844740306195,-0.2074925518380779,0.05627018854815066
-0.004227014740306195,-0.1976939536844559,0.05593388062659294
-0.004226184740306196,-0.1872195901409337,0.05492495686192019
-0.004225354740306195,-0.176069461207497,0.05357972517568879
-0.004224524740306195,-0.16694662844378,0.05391603309724652
-0.004223694740306196,-0.1581616783750195,0.05290710933257377
-0.004222864740306195,-0.1483630802213979,0.05257080141101574
-0.004222034740306195,-0.1385644820677715,0.0518981855679001
-0.004221204740306196,-0.1280901185242493,0.0518981855679001
-0.004220374740306196,-0.120318816540341,0.05055295388166978
-0.004219544740306195,-0.1091686876069055,0.05055295388166917
-0.004218714740306196,-0.09768067597853158,0.04988033803855431
-0.004217884740306196,-0.0888957259097606,0.05021664596011127
-0.004217054740306195,-0.07977289314603958,0.04954403011699596
-0.004216224740306196,-0.06896064690756998,0.0488714142738811
-0.004215394740306196,-0.06085146222870426,0.0485351063523229
-0.004214564740306195,-0.05139074677003107,0.04853510635232275
-0.004213734740306195,-0.03888908705678507,0.04752618258764908
-0.004212904740306196,-0.02976625429307634,0.0465172588229768
-0.004212074740306195,-0.02131918691926014,0.04651725882297635
-0.004211244740306195,-0.01084482337573319,0.04483571921518766
-0.004210414740306196,0.0009810709475983163,0.04550833505830283
-0.004209584740306195,0.01010390371132072,0.0451720271367454
-0.004208754740306195,0.02057826725484767,0.04382679545051446
-0.004207924740306196,0.02733592115389424,0.04382679545051446
-0.004207094740306195,0.03679663661256252,0.04080002415649621
-0.004206264740306195,0.04794676554599873,0.04180894792116804
-0.004205434740306196,0.05808324639456859,0.04113633207805288
-0.004204604740306195,0.0675439618532384,0.04147263999961015
-0.004203774740306195,0.07801832539676966,0.03911848454870616
-0.004202944740306196,0.08916845433019142,0.0384458687055913
-0.004202114740306196,0.09829128709391444,0.03777325286247551
-0.004201284740306195,0.1064004717727782,0.03642802117624427
-0.004200454740306196,0.1168748353162956,0.03676432909780171
-0.004199624740306196,0.128024964249732,0.03575540533312926
-0.004198794740306195,0.137823562403359,0.03541909741157107
-0.004197964740306195,0.1486358086418425,0.03575540533312774
-0.004197134740306196,0.157420758710599,0.03340124988222572
-0.004196304740306195,0.1668814741692725,0.03373755780378239
-0.004195474740306195,0.1766800723228945,0.03272863403910918
-0.004194644740306196,0.1861407877815597,0.03239232611755161
-0.004193814740306195,0.1966151513250909,0.03104709443132051
-0.004192984740306195,0.2054001013938555,0.03104709443132051
-0.004192154740306196,0.2158744649373777,0.03003817066664776
-0.004191324740306195,0.2243215323111907,0.0300381706666473
-0.004190494740306195,0.2368231920244364,0.02970186274508957
-0.004189664740306196,0.2429050805335783,0.0290292469019744
-0.004188834740306195,0.2550688575518648,0.02768401521574376
-0.004188004740306195,0.2628401595357775,0.02768401521574315
-0.004187174740306196,0.2726387576893951,0.02633878352951282
-0.004186344740306196,0.282437355843017,0.02532985976483946
-0.004185514740306195,0.2922359539966434,0.025329859764839
-0.004184684740306196,0.3023724348452087,0.02465724392172414
-0.004183854740306196,0.3114952676089308,0.02432093600016595
-0.004183024740306195,0.3202802176776995,0.02398462807860806
-0.004182194740306196,0.3297409331363604,0.02163047262770605
-0.004181364740306196,0.3395395312899865,0.02129416470614633
-0.004180534740306195,0.3476487159688506,0.02062154886303071
-0.004179704740306195,0.3571094314275201,0.02062154886303071
-0.004178874740306196,0.3685974430558992,0.01894000925524279
-0.004178044740306195,0.3756929796499066,0.01860370133368429
-0.004177214740306195,0.3848158124136236,0.01894000925524203
-0.004176384740306196,0.3939386451773365,0.01793108549056928
-0.004175554740306195,0.4020478298562002,0.01692216172589562
-0.004174724740306195,0.4111706626199172,0.01658585380433788
-0.004173894740306196,0.4216450261634394,0.01591323796122271
-0.004173064740306195,0.4311057416221094,0.01490431419654966
-0.004172234740306195,0.4409043397757357,0.0149043141965492
-0.004171404740306196,0.4493514071495439,0.01423169835343404
-0.004170574740306195,0.4584742399132606,0.01389539043187615
-0.004169744740306195,0.4662455418971718,0.01120492705941411
-0.004168914740306196,0.474354726576024,0.01120492705941411
-0.004168084740306196,0.4814502631700303,0.01053231121629895
-0.004167254740306195,0.492938274798418,0.01053231121629864
-0.004166424740306196,0.5013853421722223,0.009187079530068922
-0.004165594740306196,0.5081429960712764,0.008178155765394952
-0.004164764740306195,0.5172658288349966,0.00616030823604808
-0.004163934740306195,0.5250371308189077,0.007505539922278869
-0.004163104740306196,0.5338220808876643,0.007169232000721439
-0.004162274740306195,0.5432827963463377,0.00616030823604808
-0.004161444740306195,0.5527435118050072,0.005824000314490345
-0.004160614740306196,0.5591632830091016,0.004142460706702432
-0.004159784740306195,0.5692997638576789,0.004142460706701667
-0.004158954740306195,0.5767331831466335,0.002797229020470725
-0.004158124740306196,0.5831529543507278,0.00212461317735556
-0.004157294740306195,0.5912621390295866,0.001115689412682506
-0.004156464740306195,0.5993713237084498,0.0001067656480088409
-0.004155634740306196,0.6068047429974011,0.0004430735695664235
-0.004154804740306195,0.6149139276762603,-0.0002295422735485887
-0.004153974740306195,0.6236988777450285,-0.001911081881337572
-0.004153144740306196,0.630456531644075,-0.00292000564601032
-0.004152314740306196,0.6389035990178863,-0.002583697724453196
-0.004151484740306195,0.6463370183068449,-0.002247389802895307
-0.004150654740306196,0.6530946722058883,-0.003928929410682455
-0.004149824740306196,0.6628932703595121,-0.005274161096914315
-0.004148994740306195,0.6703266896484711,-0.006283084861588134
-0.004148164740306196,0.6774222262424667,-0.006619392783145563
-0.004147334740306196,0.6835041147516151,-0.006619392783145869
-0.004146504740306195,0.6902617686506676,-0.007964624469376812
-0.004145674740306195,0.699046718719432,-0.008637240312492281
-0.004144844740306196,0.7034391937538124,-0.009309856155607447
-0.004144014740306195,0.7105347303478164,-0.009982471998723224
-0.004143184740306195,0.7189817977216285,-0.009982471998723224
-0.004142354740306196,0.7254015689257228,-0.01065508784183839
-0.004141524740306195,0.7345244016894427,-0.01099139576339643
-0.004140694740306195,0.7406062901985874,-0.01233662744962737
-0.004139864740306196,0.747363944097634,-0.01334555121430012
-0.004139034740306195,0.752432184521922,-0.01166401160651267
-0.004138204740306195,0.758514073031069,-0.01401816705741605
-0.004137374740306196,0.7659474923200202,-0.0150270908220888
-0.004136544740306195,0.7720293808291655,-0.01637232250831959
-0.004135714740306195,0.7791249174231704,-0.0163723225083202
-0.004134884740306196,0.7841931578474529,-0.01670863042987763
-0.004134054740306196,0.7916265771364089,-0.01805386211610827
-0.004133224740306195,0.7953432867808895,-0.01771755419455114
-0.004132394740306196,0.8014251752900287,-0.01872647795922343
-0.004131564740306196,0.8085207118840331,-0.01939909380233951
-0.004130734740306195,0.814602600393181,-0.01906278588078208
-0.004129904740306195,0.8183193100376625,-0.0200717096454559
-0.004129074740306196,0.8274421428013712,-0.02141694133168562
-0.004128244740306195,0.832848265920615,-0.02175324925324397
-0.004127414740306195,0.8369028582600448,-0.02410740470414811
-0.004126584740306196,0.8433226294641392,-0.02410740470414811
-0.004125754740306195,0.8487287525833818,-0.02444371262570585
-0.004124924740306195,0.852445462227859,-0.02511632846882132
-0.004124094740306196,0.8592031161269056,-0.02444371262570616
-0.004123264740306195,0.8629198257713843,-0.02646156015505135
-0.004122434740306195,0.8700153623653881,-0.02747048391972547
-0.004121604740306196,0.8747457200947207,-0.02646156015505272
-0.004120774740306195,0.8781245470442461,-0.02780679184128259
-0.004119944740306195,0.881841256688725,-0.02847940768439867
-0.004119114740306196,0.8869094971130099,-0.02948833144907143
