TTT4260-ESDA/Design4/Data/Scope_sig_gen2.csv

#Digilent WaveForms Oscilloscope Acquisition
#Device Name: Discovery2
#Serial Number: SN:210321B3D979
#Date Time: 2023-04-20 14:52:00.448
#Sample rate: 1.20482e+06Hz
#Samples: 8192
#Trigger: Source: Wavegen C1 Condition: Rising
#Channel 1: Range: 500 mV/div Offset: 0 V Attenuation: 1 X Sample Mode: Average
#Channel 2: Range: 500 mV/div Offset: 0 V Attenuation: 1 X Sample Mode: Average
#Ref 1: Range: 500 mV/div Offset: 0 V
#Wavegen Channel 1: Running
#Mode: Simple
#Type: Sine
#Frequency: 1.9 kHz
#Period: 526.315789 us
#Amplitude: 500 mV
#Offset: 0 V
#Symmetry: 50 %
#Phase: 0 °
#Power Supplies: ON
#Positive Supply: ON
#Voltage: 5 V
#Negative Supply: ON
#Voltage: -5 V

#Time (s),Channel 1 (V),Channel 2 (V),Ref 1 (V)
-0.004377273360995851,1.650862270400572,1.055777331417741,-0.474757763545493
-0.00437644336099585,1.645118264586382,1.057458871025529,-0.4784744731899694
-0.004375613360995851,1.645118264586382,1.057122563103971,-0.4801638866647311
-0.004374783360995851,1.636333314517617,1.059140410633319,-0.4818533001394949
-0.004373953360995851,1.633630252957999,1.061158258162663,-0.4848942443940644
-0.004373123360995851,1.629237777923616,1.063176105692011,-0.4859078924789233
-0.004372293360995851,1.627886247143806,1.062839797770453,-0.4848942443940658
-0.00437146336099585,1.624169537499327,1.063512413613569,-0.4875973059536872
-0.004370633360995851,1.620114945159899,1.064857645299799,-0.4909761329032105
-0.004369803360995851,1.610992112396182,1.067211800750703,-0.4919897809880679
-0.004368973360995851,1.608964816226468,1.069565956201606,-0.4946928425476866
-0.004368143360995851,1.605248106581991,1.07057487996628,-0.4960443733274971
-0.004367313360995851,1.601869279632465,1.070574879966281,-0.4957064906325453
-0.00436648336099585,1.597814687293032,1.072929035417185,-0.4960443733274982
-0.00436565336099585,1.591057033393981,1.07393795918186,-0.4970580214123577
-0.004364823360995851,1.586664558359603,1.076292114632762,-0.4997610829719751
-0.004363993360995851,1.581934200630271,1.077301038397435,-0.5004368483618797
-0.004363163360995851,1.581258435240364,1.077301038397436,-0.5014504964467371
-0.004362333360995851,1.570446189001884,1.081673041377686,-0.5034777926164524
-0.00436150336099585,1.566391596662453,1.083354580985475,-0.5028020272265473
-0.00436067336099585,1.563012769712927,1.084027196828591,-0.5024641445315957
-0.004359843360995851,1.556930881203785,1.086381352279495,-0.5041535580063574
-0.004359013360995851,1.552538406169406,1.087390276044167,-0.5051672060912139
-0.004358183360995851,1.543077690710737,1.090080739416628,-0.5058429714811195
-0.004357353360995851,1.537333684896541,1.092098586945976,-0.5068566195659773
-0.004356523360995851,1.535644271421778,1.092098586945976,-0.5068566195659773
-0.00435569336099585,1.525169907878248,1.096134282004669,-0.5082081503457883
-0.004354863360995851,1.518750136674154,1.097815821612457,-0.5105733292104545
-0.004354033360995851,1.515033427029677,1.098488437455573,-0.5105733292104545
-0.004353203360995851,1.505234828876059,1.101851516671149,-0.5122627426852162
-0.004352373360995851,1.501180236536625,1.104205672122054,-0.5126006253801695
-0.004351543360995851,1.494084699942623,1.105214595886728,-0.5142900388549319
-0.00435071336099585,1.488340694128426,1.107905059259191,-0.5136142734650275
-0.00434988336099585,1.478542095974803,1.110259214710095,-0.5149658042448377
-0.004349053360995851,1.471784442075759,1.11227706223944,-0.5159794523296942
-0.004348223360995851,1.465026788176713,1.114294909768786,-0.5163173350246466
-0.004347393360995851,1.456241838107949,1.117321681062805,-0.5163173350246467
-0.004346563360995851,1.4501599495988,1.119003220670595,-0.5149658042448368
-0.00434573336099585,1.442726530309842,1.121693684043057,-0.5166552177195984
-0.00434490336099585,1.435968876410794,1.12270260780773,-0.514965804244838
-0.004344073360995851,1.432252166766319,1.123375223650845,-0.5173309831095042
-0.004343243360995851,1.420426272442992,1.127747226631092,-0.5183446311943607
-0.004342413360995851,1.412654970459078,1.130437690003556,-0.518682513889314
-0.004341583360995851,1.4025184896105,1.13312815337602,-0.5173309831095042
-0.004340753360995851,1.394071422236683,1.135482308826925,-0.5173309831095049
-0.00433992336099585,1.3825834106083,1.139181695964059,-0.5186825138893142
-0.004339093360995851,1.375149991319349,1.140863235571848,-0.5190203965842666
-0.004338263360995851,1.370419633590014,1.142544775179636,-0.5169931004145517
-0.004337433360995851,1.361634683521254,1.144898930630539,-0.5163173350246471
-0.004336603360995851,1.352849733452485,1.147589394003002,-0.5159794523296942
-0.004335773360995851,1.347105727638293,1.149270933610791,-0.5136142734650269
-0.00433494336099585,1.333928302535142,1.153306628669485,-0.5142900388549317
-0.004334113360995851,1.324467587076481,1.155660784120387,-0.5139521561599795
-0.004333283360995851,1.316358402397617,1.158014939571292,-0.512262742685217
-0.004332453360995851,1.304532508074286,1.161714326708425,-0.512262742685217
-0.004331623360995851,1.297099088785329,1.163395866316215,-0.5126006253801694
-0.004330793360995851,1.284935311767036,1.167095253453351,-0.510235446515502
-0.00432996336099585,1.280880719427603,1.168440485139583,-0.5092217984306427
-0.00432913336099585,1.273447300138637,1.170458332668933,-0.5051672060912155
-0.004328303360995851,1.257566813475885,1.175502951492294,-0.5058429714811198
-0.004327473360995851,1.249457628797033,1.176848183178524,-0.5051672060912155
-0.004326643360995851,1.232563494049409,1.180883878237216,-0.5038156753114056
-0.004325813360995851,1.222089130505875,1.18357434160968,-0.5044914407013099
-0.004324983360995851,1.213979945827013,1.185592189139028,-0.502802027226547
-0.00432415336099585,1.20891170540272,1.18828265251149,-0.5017883791416901
-0.004323323360995851,1.190666039875294,1.193327271334854,-0.5017883791416901
-0.004322493360995851,1.174109787822622,1.196690350550432,-0.5000989656669276
-0.004321663360995851,1.164311189669005,1.198035582236662,-0.4987474348871182
-0.004320833360995851,1.150120116480996,1.202407585216913,-0.4963822560224502
-0.004320003360995851,1.139307870242517,1.204089124824702,-0.4970580214123552
-0.00431917336099585,1.126806210529269,1.20745220404028,-0.4963822560224496
-0.004318343360995851,1.114642433510985,1.210478975334299,-0.4950307252426403
-0.004317513360995851,1.102140773797744,1.213169438706761,-0.4933413117678779
-0.004316683360995851,1.091328527559269,1.216532517922337,-0.4923276636830209
-0.004315853360995851,1.077475337066218,1.219222981294799,-0.4913140155981635
-0.004315023360995851,1.06497367735297,1.222922368431935,-0.4886109540385432
-0.00431419336099585,1.050444721470006,1.22527652388284,-0.4872594232587331
-0.00431336336099585,1.033550586722381,1.228303295176862,-0.4869215405637795
-0.004312533360995851,1.023751988568768,1.231666374392436,-0.4855700097839708
-0.004311703360995851,0.9950319594978326,1.236038377372683,-0.4838805963092099
-0.004310873360995851,0.9845575959542844,1.240746688274493,-0.4825290655293991
-0.004310043360995851,0.975772645885515,1.243100843725399,-0.4801638866647311
-0.004309213360995851,0.9625952207823609,1.245118691254747,-0.477122942410158
-0.00430838336099585,0.9463768514246418,1.248818078391883,-0.4754335289353954
-0.004307553360995851,0.93015848206693,1.252517465529016,-0.4734062327656814
-0.004306723360995851,0.9183325877435878,1.255544236823036,-0.4703652885111083
-0.004305893360995851,0.9068445761152139,1.256889468509266,-0.4686758750363474
-0.004305063360995851,0.8788003124341527,1.263951934861979,-0.4666485788666318
-0.004304233360995851,0.8696774796704356,1.264960858626652,-0.4652970480868219
-0.00430340336099585,0.8517696968379448,1.269332861606904,-0.4615803384423438
-0.004302573360995851,0.8311588524458526,1.273368556665595,-0.4598909249675822
-0.004301743360995851,0.8240633158518506,1.275386404194942,-0.4568499807130098
-0.004300913360995851,0.8075070637991865,1.278076867567402,-0.4544848018483435
-0.004300083360995851,0.7882477501868962,1.282448870547652,-0.4500923268139622
-0.004299253360995851,0.7750703250837406,1.284466718077001,-0.4480650306442452
-0.00429842336099585,0.7564867768613467,1.28917502897881,-0.445024086389672
-0.00429759336099585,0.7402684075036241,1.292538108194388,-0.4429967902199552
-0.004296763360995851,0.7284425131802981,1.293883339880617,-0.4399558459653857
-0.004295933360995851,0.7095210822629763,1.298591650782421,-0.4382664324906249
-0.004295103360995851,0.6892481205658193,1.302963653762674,-0.436914901710814
-0.004294273360995851,0.6750570473778058,1.304981501292023,-0.433198192066336
-0.00429344336099585,0.6497158452563605,1.31137135180162,-0.433198192066333
-0.00429261336099585,0.6297807662541645,1.312716583487852,-0.4264405381672846
-0.004291783360995851,0.6105214526418817,1.316752278546543,-0.4223859458278566
-0.004290953360995851,0.5959924967589134,1.319442741919007,-0.4200207669631883
-0.004290123360995851,0.5706512946375003,1.324151052820811,-0.4179934707934753
-0.004289293360995851,0.5524056291100548,1.327514132036391,-0.4139388784540445
-0.004288463360995851,0.528078075073476,1.332558750859757,-0.4125873476742346
-0.00428763336099585,0.516590063445083,1.334240290467547,-0.4115736995893753
-0.004286803360995851,0.4976686325277527,1.337603369683123,-0.4075191072499474
-0.004285973360995851,0.4848290901195583,1.340630140977142,-0.4048160456903275
-0.004285143360995851,0.4544196475738488,1.344665836035833,-0.4024508668256612
-0.004284313360995851,0.430767858927172,1.349374146937641,-0.3990720398761369
-0.004283483360995851,0.4121843107047747,1.353409841996336,-0.394679564841753
-0.00428265336099585,0.3956280586520923,1.354755073682569,-0.3926522686720366
-0.00428182336099585,0.3719762700054108,1.359127076662821,-0.3892734417225112
-0.004280993360995851,0.3517033083082803,1.362826463799953,-0.386908262857846
-0.004280163360995851,0.3300788158313313,1.366189543015529,-0.3835294359083227
-0.004279333360995851,0.3121710329988481,1.368207390544876,-0.3794748435688932
-0.004278503360995851,0.2858161827925463,1.373924625211358,-0.377785430094129
-0.00427767336099585,0.2645295730105287,1.377960320270053,-0.3720414242799364
-0.00427684336099585,0.2398641362789998,1.38132339948563,-0.3713656588900294
-0.004276013360995851,0.2202669399717647,1.385022786622764,-0.3662974184657445
-0.004275183360995851,0.2016833917493951,1.38804955791678,-0.3622428261263184
-0.004274353360995851,0.1702603011188116,1.392757868818589,-0.3598776472616484
-0.004273523360995851,0.1540419317610782,1.39443940842638,-0.3561609376171701
-0.004272693360995851,0.1293764950295407,1.400156643092862,-0.3527821106676437
-0.00427186336099585,0.1155233045364823,1.401501874779095,-0.3494032837181181
-0.004271033360995851,0.08714115816048668,1.406210185680901,-0.3443350432938332
-0.004270203360995851,0.06720607915829022,1.408900649053363,-0.3409562163443084
-0.004269373360995851,0.04591946937629352,1.412936344112054,-0.3348743278351665
-0.004268543360995851,0.01686155761037036,1.417308347092306,-0.3304818528007814
-0.004267713360995851,-0.008141761816113327,1.421344042150999,-0.3271030258512566
-0.00426688336099585,-0.01692671188489154,1.422016657994117,-0.3237241989017296
-0.004266053360995851,-0.04699827173563511,1.427733892660593,-0.3189938411723992
-0.004265223360995851,-0.07909712775613462,1.432442203562404,-0.3156150142228722
-0.004264393360995851,-0.1007216202330836,1.435132666934865,-0.3112225391884919
-0.004263563360995851,-0.1182915203706146,1.438159438228884,-0.3064921814591574
-0.004262733360995851,-0.138226599372819,1.44051359367979,-0.3037891198995353
-0.00426190336099585,-0.1659329803589338,1.4452219045816,-0.298382996780294
-0.00426107336099585,-0.1905984170904694,1.449257599640293,-0.2946662871358147
-0.004260243360995851,-0.2078304345330304,1.451948063012753,-0.2906116947963885
-0.004259413360995851,-0.2341852847393,1.456320065992999,-0.2872328678468667
-0.004258583360995851,-0.2608780176405579,1.460355761051694,-0.2835161582023881
-0.004257753360995851,-0.2831782755074339,1.463382532345716,-0.2770963869982892
-0.004256923360995851,-0.3007481756449757,1.466072995718179,-0.273041794658858
-0.00425609336099585,-0.3287924393260304,1.469436074933757,-0.2700008504042859
-0.004255263360995851,-0.3537957587525027,1.472799154149332,-0.2672977888446673
-0.004254433360995851,-0.3750823685345091,1.475825925443352,-0.2625674311153325
-0.004253603360995851,-0.4004235706559337,1.479861620502043,-0.2591886041658092
-0.004252773360995851,-0.4264405381672864,1.483897315560738,-0.2537824810465679
-0.004251943360995851,-0.4609045730524396,1.488941934384104,-0.2500657714020906
-0.00425111336099585,-0.4686758750363583,1.490623473991894,-0.2456732963677065
-0.004250283360995851,-0.4943549598527237,1.493313937364353,-0.2416187040282804
-0.004249453360995851,-0.5159794523296942,1.496004400736816,-0.2379019943838013
-0.004248623360995851,-0.5416585371460713,1.50104901956018,-0.2311443404847547
-0.004247793360995851,-0.561255733453318,1.50273055916797,-0.226413982755419
-0.004246963360995851,-0.5947061202536227,1.507775177991337,-0.2233730385008445
-0.00424613336099585,-0.6254534454943098,1.512147180971589,-0.2186426807715086
-0.00424530336099585,-0.6504567649208027,1.515846568108725,-0.2159396192118862
-0.004244473360995851,-0.6730949054825985,1.518200723559627,-0.2118850268724601
-0.004243643360995851,-0.6967466941292507,1.522909034461431,-0.2041137248885601
-0.004242813360995851,-0.7197227173860307,1.524926881990781,-0.2017485460238868
-0.004241983360995851,-0.73999567908319,1.527617345363243,-0.1966803055995984
-0.004241153360995851,-0.7541867522712071,1.529971500814149,-0.1916120651753078
-0.00424032336099585,-0.7825688986472139,1.534343503794399,-0.1841786458863554
-0.004239493360995851,-0.8068964526837815,1.537370275088418,-0.1814755843267367
-0.004238663360995851,-0.8295345932455979,1.540733354303995,-0.1780967573772119
-0.004237833360995851,-0.8596061530963551,1.545105357284244,-0.1726906342579747
-0.004237003360995851,-0.8802169974884702,1.549477360264496,-0.1655950976639701
-0.004236173360995851,-0.901841489965429,1.551158899872285,-0.1618783880194928
-0.00423534336099585,-0.9119779708140174,1.55216782363696,-0.1578237956800596
-0.004234513360995851,-0.9423874133597269,1.556203518695651,-0.1503903763911084
-0.004233683360995851,-0.9687422635660206,1.560575521675901,-0.1476873148314885
-0.004232853360995851,-0.9950971137723021,1.563938600891477,-0.1422811917122513
-0.004232023360995851,-1.011653365824978,1.565620140499267,-0.1351856551182499
-0.004231193360995851,-1.039021864116137,1.570664759322633,-0.1324825935586268
-0.00423036336099585,-1.052537171914245,1.573018914773539,-0.1291037666090984
-0.00422953336099585,-1.071458602831598,1.575036762302886,-0.1213324646251924
-0.004228703360995851,-1.096124039563106,1.577390917753788,-0.118629403065575
-0.004227873360995851,-1.113693939700619,1.58109030489092,-0.1145748107261489
-0.004227043360995851,-1.136332080262441,1.585462307871172,-0.110182335691765
-0.004226213360995851,-1.160321751604078,1.588489079165194,-0.1068035087422382
-0.00422538336099585,-1.179581065216373,1.591515850459214,-0.09768067597851975
-0.00422455336099585,-1.188366015285146,1.593533697988561,-0.0946397317239468
-0.004223723360995851,-1.21370721740657,1.596560469282579,-0.09024725668956653
-0.004222893360995851,-1.232290765628967,1.598578316811927,-0.0858547816551818
-0.004222063360995851,-1.255604671580667,1.602277703949059,-0.080448658535947
-0.004221233360995851,-1.267092683209062,1.603959243556849,-0.0757183008066098
-0.004220403360995851,-1.284662583346591,1.606986014850869,-0.07166370846718
-0.00421957336099585,-1.299867304619464,1.610349094066448,-0.06625758534793844
-0.004218743360995851,-1.323519093266127,1.614721097046697,-0.0622029930085105
-0.004217913360995851,-1.339399579928894,1.617747868340716,-0.05814840066908071
-0.004217083360995851,-1.366092312830127,1.621783563399408,-0.05274227754984345
-0.004216253360995851,-1.3748772628989,1.62312879508564,-0.04801191982050838
-0.004215423360995851,-1.387378922612146,1.625146642614987,-0.04361944478612396
-0.00421459336099585,-1.402921526579962,1.627500798065892,-0.03787543897192992
-0.00421376336099585,-1.405962470834549,1.62951864559524,-0.03382084663249615
-0.004212933360995851,-1.424208136361967,1.632881724810815,-0.02740107542840482
-0.004212103360995851,-1.441102271109583,1.635908496104833,-0.02199495230916756
-0.004211273360995851,-1.454617578907684,1.638262651555737,-0.01625094649497551
-0.004210443360995851,-1.468132886705789,1.641625730771316,-0.01152058876563815
-0.00420961336099585,-1.476917836774563,1.643307270379106,-0.007465996426206672
-0.00420878336099585,-1.4965150330818,1.646670349594682,-0.003749286781727831
-0.004207953360995851,-1.50225903889599,1.648015581280913,0.003346249812271071
-0.004207123360995851,-1.507327279320273,1.650369736731815,0.009766021016362396
-0.004206293360995851,-1.518139525558752,1.653060200104277,0.01348273066084385
-0.004205463360995851,-1.536723073781143,1.657095895162972,0.02091614994980015
-0.004204633360995851,-1.54314284498524,1.65877743477076,0.02463285959427745
-0.00420380336099585,-1.554292973918675,1.661467898143223,0.03071474810342383
-0.004202973360995851,-1.559699097037912,1.664158361515684,0.03443145774789944
-0.004202143360995851,-1.573552287530964,1.667857748652819,0.04051334625704413
-0.004201313360995851,-1.57591746639563,1.667185132809704,0.04423005590151974
-0.004200483360995851,-1.588419126108873,1.670548212025281,0.04929829632580866
-0.004199653360995851,-1.593825249228113,1.673238675397743,0.05335288866523845
-0.00419882336099585,-1.601596551212023,1.674583907083976,0.05808324639457597
-0.00419799336099585,-1.60835420511107,1.678283294221109,0.06416513490371972
-0.004197163360995851,-1.609029970500975,1.678283294221109,0.06619243107343277
-0.004196333360995851,-1.621869512909163,1.681310065515127,0.073625850362384
-0.004195503360995851,-1.624234691773835,1.682991605122917,0.07666679461695834
-0.004194673360995851,-1.634709055317363,1.685682068495379,0.08207291773619944
-0.00419384336099585,-1.638763647656796,1.687027300181612,0.08815480624534688
-0.00419301336099585,-1.64619706694575,1.690390379397188,0.09423669475448972
-0.004192183360995851,-1.651265307370035,1.692744534848091,0.09626399092420369
-0.004191353360995851,-1.655657782404413,1.694089766534321,0.1016701140434385
-0.004190523360995851,-1.661401788218607,1.696443921985225,0.1057247063828714
-0.004189693360995851,-1.664442732473182,1.697116537828342,0.109779298722303
-0.004188863360995851,-1.668835207507566,1.699470693279247,0.1128202429768778
-0.00418803336099585,-1.673903447931854,1.701488540808594,0.118226366096117
-0.004187203360995851,-1.679309571051091,1.704515312102612,0.1226188411304973
-0.004186373360995851,-1.680998984525853,1.705187927945728,0.128700729639642
-0.004185543360995851,-1.6877566384249,1.707878391318188,0.13275532197907
-0.004184713360995851,-1.691811230764333,1.708551007161305,0.1381614450983115
-0.004183883360995851,-1.696203705798715,1.710905162612209,0.1408645066579314
-0.00418305336099585,-1.697555236578527,1.713259318063114,0.1469463951670788
-0.004182223360995851,-1.701609828917953,1.714268241827786,0.153028283676218
-0.004181393360995851,-1.706002303952337,1.715613473514018,0.1553934625408881
-0.004180563360995851,-1.708029600122051,1.718303936886478,0.1618132337449824
-0.004179733360995851,-1.711408427071575,1.719312860651152,0.1658678260844132
-0.004178903360995851,-1.716476667495864,1.721667016102057,0.1705981838137498
-0.00417807336099585,-1.717152432885769,1.722339631945172,0.17431489345823
-0.00417724336099585,-1.717490315580725,1.722675939866732,0.1807346646623286
-0.004176413360995851,-1.721544907920151,1.724357479474519,0.185465022391659
-0.004175583360995851,-1.726275265649482,1.727720558690093,0.1895196147310851
-0.004174753360995851,-1.726275265649486,1.727720558690096,0.1952636205452784
-0.004173923360995851,-1.727288913734343,1.729065790376327,0.1999939782746158
